Applications of Machine Learning for Personalization of Online Content Using Big Data
…
In total there are \(n_f (n_u + n_i)\) parameters but given the sparsity of \(R\) we have much fewer than \(n_un_i\) data points, so choosing a large \(n_f\) will very likely lead to overfitting.

To avoid overfitting we will use (weighted) L2-regularization and minimize the following loss function

\[ \mathcal{L}^{reg}_{\lambda}(R, U, V) = \mathcal{L}(R, U, V) +  \lambda \left(\sum_{i}n_{u_i}\vert\vert\mathbf{u}_i \vert\vert^2  + \sum_{j}n_{v_j}\vert\vert\mathbf{v}_j \vert\vert^2\right) \] where \(n_{u_i}\) is the number of items that user \(i\) has rated and \(n_{v_j}\) is the number of users that have rated item \(j\).

The main contribution of Zhou et al. is the alternating least squares (ALS) approach which alternates between updates of the \(U\) and \(V\) matrices (keeping \(V\) and \(U\) fixed, correspondingly). They also show how the problem can be parallelized (showing a Matlab implementation) which allows solving problems of huge dimensions (the Netflix dataset has over 100 million ratings by more than 480,000 users of close to 18,000 movies).

Since then, the ALS method has been implemented in Spark, which is what we will use.

The data

Users table

## # A tibble: 6,040 x 5
##    UserID Gender   Age Occupation `Zip-code`
##     <dbl> <chr>  <dbl>      <dbl> <chr>     
##  1      1 F          1         10 48067     
##  2      2 M         56         16 70072     
##  3      3 M         25         15 55117     
##  4      4 M         45          7 02460     
##  5      5 M         25         20 55455     
##  6      6 F         50          9 55117     
##  7      7 M         35          1 06810     
##  8      8 M         25         12 11413     
##  9      9 M         25         17 61614     
## 10     10 F         35          1 95370     
## # … with 6,030 more rows

Movies table

## # A tibble: 3,883 x 3
##    MovieID Title                              Genres                      
##      <dbl> <chr>                              <chr>                       
##  1       1 Toy Story (1995)                   Animation|Children's|Comedy 
##  2       2 Jumanji (1995)                     Adventure|Children's|Fantasy
##  3       3 Grumpier Old Men (1995)            Comedy|Romance              
##  4       4 Waiting to Exhale (1995)           Comedy|Drama                
##  5       5 Father of the Bride Part II (1995) Comedy                      
##  6       6 Heat (1995)                        Action|Crime|Thriller       
##  7       7 Sabrina (1995)                     Comedy|Romance              
##  8       8 Tom and Huck (1995)                Adventure|Children's        
##  9       9 Sudden Death (1995)                Action                      
## 10      10 GoldenEye (1995)                   Action|Adventure|Thriller   
## # … with 3,873 more rows

Ratings table

## # A tibble: 1,000,209 x 4
##    UserID MovieID Rating Timestamp
##     <dbl>   <dbl>  <dbl>     <dbl>
##  1      1    1193      5 978300760
##  2      1     661      3 978302109
##  3      1     914      3 978301968
##  4      1    3408      4 978300275
##  5      1    2355      5 978824291
##  6      1    1197      3 978302268
##  7      1    1287      5 978302039
##  8      1    2804      5 978300719
##  9      1     594      4 978302268
## 10      1     919      4 978301368
## # … with 1,000,199 more rows
…
